25
1 2 3 4 5 6 7 8 9 A B C D E F G H I J K L M N O P 
P L M N O 1 2 3 4 5 6 7 8 9 A B E D C F G H I J K 
K G H I J P L M N O 1 2 3 4 5 6 7 8 9 A B C D E F 
F B C D E K G H I J P L M N O 1 2 3 4 5 6 7 8 9 A 
A 6 7 8 9 F B C D E K G H I J P L M N O 1 2 3 4 5 
5 1 2 3 4 A 6 7 8 9 F B C D E K G H I J P L M N O 
O P L M N 5 1 2 3 4 A 6 7 8 9 F D C B E K G H I J 
J K G H I O P L M N 5 1 2 3 4 A 6 7 8 9 F B C D E 
E F B C D J K G H I O P L M N 5 1 2 3 4 A 6 7 8 9 
9 A 6 7 8 E F B C D J K G H I O P L M N 5 1 2 3 4 
4 5 1 2 3 9 A 6 7 8 E F B C D J K G H I O P L M N 
N O P L M 4 5 1 2 3 9 A 6 7 8 E C B F D J K G H I 
I J K G H N O P L M 4 5 1 2 3 9 A 6 7 8 E F B C D 
D E F B C I J K G H N O P L M 4 5 1 2 3 9 A 6 7 8 
8 9 A 6 7 D E F B C I J K G H N O P L M 4 5 1 2 3 
3 4 5 1 2 8 9 A 6 7 D E F B C I J K G H N O P L M 
M N O P L 3 4 5 1 2 8 9 A 6 7 D B F E C I J K G H 
H I J K G M N O P L 3 4 5 1 2 8 9 A 6 7 D E F B C 
C D E F B H I J K G M N O P L 3 4 5 1 2 8 9 A 6 7 
7 8 9 A 6 C D E F B H I J K G M N O P L 3 4 5 1 2 
2 3 4 5 1 7 8 9 A 6 C D E F B H I J K G M N O P L 
L M N O P 2 3 4 5 1 7 8 9 A 6 C F E D B H I J K G 
G H I J K L M N O P 2 3 4 5 1 7 8 9 A 6 C D E F B 
B C D E F G H I J K L M N O P 2 3 4 5 1 7 8 9 A 6 
6 7 8 9 A B C D E F G H I J K L M N O P 2 3 4 5 1 
1 2 3 4 5 6 7 8 9 A B C D E F G H I J K L M N O P 

25
1 2 3 4 5 6 7 8 9 A B C D E F G H I J K L M N O P 
P L M N O 1 2 3 4 5 6 7 8 9 A B C D E F G H I J K 
K G H I J P L M N O 1 2 3 4 5 6 7 8 9 A B C D E F 
F B C D E K G H I J P L M N O 1 2 3 4 5 6 7 8 9 A 
A 6 7 8 9 F B C D E K G H I J P L M N O 1 2 3 4 5 
5 1 2 3 4 A 6 7 8 9 F B C D E K G H I J P L M N O 
O P L M N 5 1 2 3 4 A 6 7 8 9 F B C D E K G H I J 
J K G H I O P L M N 5 1 2 3 4 A 6 7 8 9 F B C D E 
E F B C D J K G H I O P L M N 5 1 2 3 4 A 6 7 8 9 
9 A 6 7 8 E F B C D J K G H I O P L M N 5 1 2 3 4 
4 5 1 2 3 9 A 6 7 8 E F B C D J K G H I O P L M N 
N O P L M 4 5 1 2 3 9 A 6 7 8 E F B C D J K G H I 
I J K G H N O P L M 4 5 1 2 3 9 A 6 7 8 E F B C D 
D E F B C I J K G H N O P L M 4 5 1 2 3 9 A 6 7 8 
8 9 A 6 7 D E F B C I J K G H N O P L M 4 5 1 2 3 
3 4 5 1 2 8 9 A 6 7 D E F B C I J K G H N O P L M 
M N O P L 3 4 5 1 2 8 9 A 6 7 D E F B C I J K G H 
H I J K G M N O P L 3 4 5 1 2 8 9 A 6 7 D E F B C 
C D E F B H I J K G M N O P L 3 4 5 1 2 8 9 A 6 7 
7 8 9 A 6 C D E F B H I J K G M N O P L 3 4 5 1 2 
2 3 4 5 1 7 8 9 A 6 C D E F B H I J K G M N O P L 
L M N O P 2 3 4 5 1 7 8 9 A 6 C D E F B H I J K G 
G H I J K L M N O P 2 3 4 5 1 7 8 9 A 6 C D E F B 
B C D E F G H I J K L M N O P 2 3 4 5 1 7 8 9 A 6 
6 7 8 9 A B C D E F G H I J K L M N O P 2 3 4 5 1 
1 2 3 4 5 6 7 8 9 A B C D E F G H I J K L M N O P 

The Puzzle took 343 ms to run.
There was 1 guess.
