16
1 2 3 4 5 6 7 8 9 A B C D E F G 
- - - - 1 - 3 - 5 - 7 - 9 - B C 
- - A - - - E - 1 - 3 - 5 6 - 8 
8 - 6 - - 9 - B - D - F - - 3 - 
4 - 2 - 8 - 6 - C - A - - - E - 
F - D - 4 - 2 - - - - 7 - 9 A - 
- - 9 - - G - E - - 2 3 - 5 - 7 
7 - - - B - 9 - F - D - 4 - - 3 
- 4 - 2 - 8 - 6 - - 9 - - G - E 
- F - - 3 4 - 2 - - 5 - - C - A 
A - - 9 - F - D - - 1 - 7 - - 6 
6 - 8 - - - - 9 - F - - 3 - 1 2 
2 - 4 - 6 - 8 - A - - - E - - D 
D - - - - 3 - 1 - 7 - 5 A - C - 
9 A - C - - - - 2 - 4 - 6 - 8 - 
5 - - 8 - A - - D - F - - 3 - 1 
1 - 3 - - 6 - 8 - - - C - - F G 
Unsolvable
The Puzzle took 67327 ms to run.
There were 5001 guesses.
