9
1 2 3 4 5 6 7 8 9 
4 8 2 9 3 6 1 5 7 
3 6 1 2 7 5 4 9 8 
7 9 5 8 4 1 6 3 2 
9 7 6 5 8 3 2 4 1 
5 2 4 6 1 7 9 8 3 
1 3 8 4 9 2 5 7 6 
2 1 9 7 5 8 3 6 4 
6 5 7 3 2 4 8 1 9 
8 4 3 1 6 9 7 2 5 

The Puzzle took 12 ms to run.
There were 5 guesses.
