9
1 2 3 4 5 6 7 8 9 
4 8 6 3 7 5 1 9 2 
9 3 1 6 4 2 7 8 5 
2 7 5 9 1 8 4 6 3 
3 1 9 2 5 4 8 7 6 
8 2 7 1 6 9 5 3 4 
5 6 4 8 3 7 9 2 1 
1 9 3 5 8 6 2 4 7 
7 5 8 4 2 3 6 1 9 
6 4 2 7 9 1 3 5 8 

The Puzzle took 3 ms to run.
There were 0 guesses.
